Intro to Modeling (Continued fot HW9)
…
test_run |> 
  collect_metrics()

# A tibble: 2 × 4
  .metric .estimator .estimate .config             
  <chr>   <chr>          <dbl> <chr>               
1 rmse    standard      0.104  Preprocessor1_Model1
2 mae     standard      0.0775 Preprocessor1_Model1

test_run |> 
  extract_fit_parsnip() |> 
  tidy()

# A tibble: 30 × 5
   term                     estimate std.error statistic   p.value
   <chr>                       <dbl>     <dbl>     <dbl>     <dbl>
 1 (Intercept)              0.0434    0.194        0.224 0.823    
 2 temperature_c            0.234     0.189        1.24  0.217    
 3 humidity                 0.215     0.120        1.80  0.0739   
 4 wind_speed_ms           -0.0368    0.0337      -1.09  0.277    
 5 visibility_10m           0.0237    0.0393       0.604 0.546    
 6 dew_point_temperature_c  0.0214    0.193        0.111 0.912    
 7 solar_radiation_mjm2     0.171     0.0385       4.45  0.0000135
 8 rainfallmm              -0.114     0.0262      -4.34  0.0000217
 9 snowfall_cm              0.00366   0.0205       0.179 0.858    
10 temperature_c_quad      -0.000802  0.000285    -2.81  0.00534  
# ℹ 20 more rows
…
